{
  "version": "1.0",
  "metadata": {
    "branch_name": "add-pagination-docs",
    "artifact_type": "markdown",
    "created_at": "2026-01-30T20:53:40.762134+00:00",
    "pr_description": "Add pagination docs: new pagination.md guide, updated endpoints.md with pagination metadata, linked from README",
    "status": "active"
  },
  "summary": {
    "files": [
      {
        "path": "README.md",
        "status": "modified",
        "description": "+1/-0"
      },
      {
        "path": "authentication.md",
        "status": "unchanged"
      },
      {
        "path": "changelog.md",
        "status": "unchanged"
      },
      {
        "path": "endpoints.md",
        "status": "modified",
        "description": "+14/-2"
      },
      {
        "path": "errors.md",
        "status": "unchanged"
      },
      {
        "path": "pagination.md",
        "status": "added",
        "description": "New (85 lines)"
      }
    ],
    "stats": {
      "files_changed": 2,
      "files_added": 1,
      "files_removed": 0,
      "total_additions": 100,
      "total_removals": 2
    }
  },
  "changes": [
    {
      "id": "README.md-1",
      "type": "unchanged",
      "file": "README.md",
      "location": "Lines 1-14",
      "description": "14 unchanged lines",
      "content": {
        "type": "code",
        "content": "# Acme API Documentation\n\nWelcome to the Acme API. This documentation covers everything you need to integrate with our platform.\n... (8 more) ...\n\n- [Authentication](authentication.md) \u2014 API keys, OAuth, and token management\n- [Endpoints](endpoints.md) \u2014 Full API reference",
        "language": "markdown"
      },
      "collapsed": true
    },
    {
      "id": "README.md-2",
      "type": "added",
      "file": "README.md",
      "location": "After line 14",
      "description": "Added 1 lines",
      "content": {
        "type": "code",
        "content": "- [Pagination](pagination.md) \u2014 Guide to paginating list endpoints",
        "language": "markdown"
      }
    },
    {
      "id": "README.md-3",
      "type": "unchanged",
      "file": "README.md",
      "location": "Lines 15-30",
      "description": "16 unchanged lines",
      "content": {
        "type": "code",
        "content": "- [Error Codes](errors.md) \u2014 Error responses and troubleshooting\n- [Changelog](changelog.md) \u2014 Version history and breaking changes\n\n... (10 more) ...\n## Support\n\nContact us at api-support@acme.com or visit our [developer forum](https://forum.acme.com).",
        "language": "markdown"
      },
      "collapsed": true
    },
    {
      "id": "file-authentication.md-unch",
      "type": "unchanged",
      "file": "authentication.md",
      "description": "Unchanged (77 lines)",
      "collapsed": true,
      "content": {
        "type": "text",
        "content": "(77 lines, no changes)"
      }
    },
    {
      "id": "file-changelog.md-unch",
      "type": "unchanged",
      "file": "changelog.md",
      "description": "Unchanged (27 lines)",
      "collapsed": true,
      "content": {
        "type": "text",
        "content": "(27 lines, no changes)"
      }
    },
    {
      "id": "endpoints.md-1",
      "type": "unchanged",
      "file": "endpoints.md",
      "location": "Lines 1-3",
      "description": "3 unchanged lines",
      "content": {
        "type": "code",
        "content": "# API Endpoints\n\nAll endpoints use the base URL `https://api.acme.com/v2`.",
        "language": "markdown"
      },
      "collapsed": false
    },
    {
      "id": "endpoints.md-2",
      "type": "added",
      "file": "endpoints.md",
      "location": "After line 3",
      "description": "Added 2 lines",
      "content": {
        "type": "code",
        "content": "\n> **Note:** All list endpoints support pagination. See the [Pagination Guide](pagination.md) for details.",
        "language": "markdown"
      }
    },
    {
      "id": "endpoints.md-3",
      "type": "unchanged",
      "file": "endpoints.md",
      "location": "Lines 4-40",
      "description": "37 unchanged lines",
      "content": {
        "type": "code",
        "content": "\n## Users\n\n... (31 more) ...\n      \"role\": \"admin\"\n    }\n  ],",
        "language": "markdown"
      },
      "collapsed": true
    },
    {
      "id": "endpoints.md-4",
      "type": "modified",
      "file": "endpoints.md",
      "location": "Lines 41-41 \u2192 43-48",
      "description": "Modified 1 \u2192 6 lines",
      "before": {
        "type": "code",
        "content": "  \"total\": 42",
        "language": "markdown",
        "label": "Before (lines 41-41)"
      },
      "after": {
        "type": "code",
        "content": "  \"meta\": {\n    \"total\": 42,\n    \"limit\": 10,\n    \"offset\": 0,\n    \"has_more\": true\n  }",
        "language": "markdown",
        "label": "After (lines 43-48)"
      }
    },
    {
      "id": "endpoints.md-5",
      "type": "unchanged",
      "file": "endpoints.md",
      "location": "Lines 42-113",
      "description": "72 unchanged lines",
      "content": {
        "type": "code",
        "content": "}\n```\n\n... (66 more) ...\n      \"created_at\": \"2025-01-15T10:00:00Z\"\n    }\n  ],",
        "language": "markdown"
      },
      "collapsed": true
    },
    {
      "id": "endpoints.md-6",
      "type": "modified",
      "file": "endpoints.md",
      "location": "Lines 114-114 \u2192 121-126",
      "description": "Modified 1 \u2192 6 lines",
      "before": {
        "type": "code",
        "content": "  \"total\": 5",
        "language": "markdown",
        "label": "Before (lines 114-114)"
      },
      "after": {
        "type": "code",
        "content": "  \"meta\": {\n    \"total\": 5,\n    \"limit\": 20,\n    \"offset\": 0,\n    \"has_more\": false\n  }",
        "language": "markdown",
        "label": "After (lines 121-126)"
      }
    },
    {
      "id": "endpoints.md-7",
      "type": "unchanged",
      "file": "endpoints.md",
      "location": "Lines 115-139",
      "description": "25 unchanged lines",
      "content": {
        "type": "code",
        "content": "}\n```\n\n... (19 more) ...\n```\n\nPermanently deletes a project and all associated data. This action cannot be undone.",
        "language": "markdown"
      },
      "collapsed": true
    },
    {
      "id": "file-errors.md-unch",
      "type": "unchanged",
      "file": "errors.md",
      "description": "Unchanged (60 lines)",
      "collapsed": true,
      "content": {
        "type": "text",
        "content": "(60 lines, no changes)"
      }
    },
    {
      "id": "file-pagination.md-new",
      "type": "added",
      "file": "pagination.md",
      "description": "New file: pagination.md (85 lines)",
      "content": {
        "type": "code",
        "content": "# Pagination Guide\n\nAll list endpoints in the Acme API support pagination to help you efficiently retrieve large datasets.\n\n## How Pagination Works\n\nList endpoints return results in pages. Use the `limit` and `offset` parameters to control which page you receive.\n\n### Parameters\n\n| Parameter | Type | Default | Description |\n|-----------|------|---------|-------------|\n| `limit` | integer | 20 | Number of results per page (max: 100) |\n| `offset` | integer | 0 | Number of results to skip |\n\n### Response Metadata\n\nEvery paginated response includes a `meta` object:\n\n```json\n{\n  \"data\": [...],\n  \"meta\": {\n    \"total\": 142,\n    \"limit\": 20,\n    \"offset\": 0,\n    \"has_more\": true\n  }\n}\n```\n\n| Field | Description |\n|-------|-------------|\n| `total` | Total number of results across all pages |\n| `limit` | The limit used for this request |\n| `offset` | The offset used for this request |\n| `has_more` | Whether more results exist beyond this page |\n\n## Examples\n\n### First Page\n\n```bash\ncurl -H \"Authorization: Bearer YOUR_API_KEY\" \\\n  \"https://api.acme.com/v2/users?limit=20&offset=0\"\n```\n\n### Second Page\n\n```bash\ncurl -H \"Authorization: Bearer YOUR_API_KEY\" \\\n  \"https://api.acme.com/v2/users?limit=20&offset=20\"\n```\n\n### Iterating All Pages\n\n```python\nimport requests\n\noffset = 0\nlimit = 100\nall_users = []\n\nwhile True:\n    resp = requests.get(\n        \"https://api.acme.com/v2/users\",\n        headers={\"Authorization\": \"Bearer YOUR_API_KEY\"},\n        params={\"limit\": limit, \"offset\": offset}\n    )\n    data = resp.json()\n    all_users.extend(data[\"data\"])\n    \n    if not data[\"meta\"][\"has_more\"]:\n        break\n    offset += limit\n\nprint(f\"Fetched {len(all_users)} users\")\n```\n\n## Best Practices\n\n1. **Use reasonable page sizes.** Default (20) is fine for most cases. Use 100 for bulk operations.\n2. **Don't skip pages.** Always iterate sequentially to avoid missing records if data changes between requests.\n3. **Check `has_more`.** Don't rely on `total` for loop termination \u2014 new records may be added during iteration.\n4. **Cache when possible.** If data doesn't change frequently, cache pages to reduce API calls.\n",
        "language": "markdown"
      }
    }
  ],
  "comments": []
}